<?xml version="1.0" encoding="UTF-8"?>
<svg width="50px" height="50px" viewBox="0 0 50 50" version="1.1" xmlns="http://www.w3.org/2000/svg" xmlns:xlink="http://www.w3.org/1999/xlink">
    <!-- Generator: Sketch 51.1 (57501) - http://www.bohemiancoding.com/sketch -->
    <title>menu-sqr</title>
    <desc>Created with Sketch.</desc>
    <defs></defs>
    <g id="menu-sqr" stroke="none" stroke-width="1" fill="none" fill-rule="evenodd">
        <g id="Group" transform="translate(11.000000, 15.000000)" fill="#000000" fill-rule="nonzero">
            <rect id="Rectangle" x="0" y="0" width="28" height="4"></rect>
            <rect id="Rectangle" x="0" y="8" width="28" height="4"></rect>
            <rect id="Rectangle" x="0" y="16" width="28" height="4"></rect>
        </g>
    </g>
</svg>